0.145
0.012
0.016
0
0
0
0.004
0.004
0.055
0.012
0
0
0
0
0.043
0
0.004
0
0
0
0
0.004
0
0
0
0
0
0
0.004
0
0
0
0
0
0
0
0.145
0
0
0
0
0
0
0
0.043
0
0
0
0
0
0.43
0
0
0
0
0
0
0.062
0.02
0.031
0
0.023
0
0
0
0
0
0
0
0
0
0
0
0
0
0
0
0
0
0
0
0
0
0
0
0
0
0.125
0
0
0
0
0
0
0.004
0.336
0
0
0
0
0
0
0.008
0.02
0
0
0
0
0
0.336
0.004
0
0
0
0
0
0.043
0.07
0.125
0
0
0
0
0
0
0
0.062
0
0
0
0
0
0.062
0
0
0
0
0
0
0
0
0
0
0
0
0
0.051
0
0
0
0
0
0
0
0.492
0
0
0
0
0
0
0
0.016
0
0
0
0
0
0.188
0
0.004
0
0
0
0
0
0
0.094
0
0.055
0
0
0
0
0.004
0
0
0
0
0
0
0.012
0
0
0
0
0
0
0
0
0
0
0
0
0
0.047
0
0
0
0
0
0
0.012
0.18
0
0
0
0
0
0
0
0.133
0
0
0
0
0
0.281
0
0.016
0
0
0
0
0.164
0.004
0.023
0
0.027
0
0
0
0
0
0
0
0
0
0
0
0
0
0
0
0
0
0
0
0
0
0
0
0
0
0.207
0
0
0
0
0
0
0.004
0.262
0
0
0
0
0
0
0
0.027
0
0
0
0
0
0.301
0.004
0
0
0
0
0
0.027
0.117
0.156
0
0.004
0
0
0
0
0
0.059
0
0
0
0
0
0.055
0
0.004
0
0
0
0
0
0
0
0
0
0
0
0.082
0
0
0
0
0
0
0.004
0.41
0
0
0
0
0
0
0.004
0.02
0
0
0
0
0
0.152
0
0
0
0
0
0
0.039
0.012
0.035
0
0.008
0
0
0
0
0
0
0
0
0
0
0
0
0
0
0
0
0
0
0
0
0
0
0
0
0
0.051
0
0
0
0
0
0
0.012
0.184
0
0
0
0
0
0
0
0.148
0
0
0
0
0
0.449
0
0
0
0
0
0
0.113
0
0.074
0
0.059
0
0
0
0
0
0
0
0
0
0
0
0
0
0
0
0
0
0
0
0
0
0
0
0
0
0.137
0
0
0
0
0
0
0.008
0.129
0
0
0
0
0
0
0.027
0.133
0
0
0
0
0
0.32
0
0.012
0
0
0
0
0.062
0.039
0.215
0.008
0.027
0
0
0
0
0.004
0.023
0
0
0
0
0
0.043
0
0.008
0
0
0
0
0
0
0
0
0
0
0
0.039
0
0
0
0
0
0
0
0.238
0
0
0
0
0
0
0.016
0.145
0
0
0
0
0
0.168
0.012
0
0
0
0.004
0
0.031
0.02
0.012
0
0
0
0
0
0
0
0
0
0
0
0
0
0
0
0
0
0
0
0
0
0
0
0
0
0
0
0.078
0
0
0
0
0
0
0
0.316
0
0
0
0
0
0
0
0.031
0
0
0
0
0
0.508
0
0
0
0
0
0
0.055
0
0.059
0
0.07
0
0
0
0
0
0
0
0
0
0
0
0
0
0
0
0
0
0
0
0
0
0
0
0
0
0.156
0
0
0
0
0
0
0.035
0.242
0
0
0
0
0
0
0.02
0.074
0
0
0
0
0
0.199
0.012
0.027
0
0
0
0
0.082
0.023
0.078
0
0.059
0
0
0
0
0
0
0
0
0
0
0
0
0
0
0
0
0
0
0
0
0
0
0
0
0
0.141
0
0
0
0
0
0
0.016
0.176
0
0
0
0
0
0
0.027
0.152
0
0
0
0
0
0.145
0.02
0.016
0
0
0
0
0.129
0.043
0.008
0
0
0
0
0
0
0
0
0
0
0
0
0
0
0
0
0
0
0
0
0
0
0
0
0
0
0
0.102
0
0
0
0
0
0
0.02
0.281
0
0
0
0
0
0
0
0.031
0
0
0
0
0
0.469
0
0
0
0
0
0
0.09
0
0.105
0
0.09
0
0
0
0
0
0
0
0
0
0
0
0
0
0
0
0
0
0
0
0
0
0
0
0
0
0.109
0
0
0
0
0
0
0.027
0.262
0
0
0
0
0
0
0.012
0.09
0
0
0
0
0
0.133
0.004
0.004
0
0
0
0
0.105
0.059
0.113
0
0.098
0
0
0
0
0
0
0
0
0
0
0
0
0
0
0
0
0
0
0
0
0
0
0
0
0
0.152
0
0
0
0
0
0
0.02
0.133
0
0
0
0
0
0
0.016
0.16
0
0
0
0
0
0.133
0.02
0.023
0
0
0
0
0.074
0.059
0.035
0
0.004
0
0
0
0
0
0
0
0
0
0
0
0
0
0
0
0
0
0
0
0
0
0
0
0
0
0.035
0
0
0
0
0
0
0.004
0.262
0
0
0
0
0
0
0
0.102
0
0
0
0
0
0.32
0
0.008
0
0
0
0
0.227
0.004
0.102
0
0.133
0
0
0
0
0
0
0
0
0
0
0
0
0
0
0
0
0
0
0
0
0
0
0
0
0
0.145
0
0
0
0
0
0
0.004
0.188
0
0
0
0
0
0
0.016
0.117
0
0
0
0
0
0.133
0.016
0.039
0
0
0
0
0.062
0.047
0.098
0
0.105
0
0
0
0
0
0
0
0
0
0
0
0
0
0
0
0
0
0
0
0
0
0
0
0
0
0.129
0
0
0
0
0
0
0.012
0.238
0
0
0
0
0
0
0.012
0.16
0
0
0
0
0
0.086
0.012
0.02
0
0
0
0
0.074
0.055
0.059
0
0.039
0
0
0
0
0
0
0
0
0
0
0
0
0
0
0
0
0
0
0
0
0
0
0
0
0
0.125
0
0
0
0
0
0
0.043
0.121
0
0
0
0
0
0
0.008
0.109
0
0
0
0
0
0.352
0.004
0.008
0
0
0
0
0.129
0.004
0.105
0
0.141
0
0
0
0
0
0
0
0
0
0
0
0
0
0
0
0
0
0
0
0
0
0
0
0
0
0.152
0
0
0
0
0
0
0.02
0.109
0
0
0
0
0
0
0.016
0.062
0
0
0
0
0
0.145
0.012
0.031
0
0
0
0
0.141
0.066
0.027
0
0.016
0
0
0
0
0
0
0
0
0
0
0
0
0
0
0
0
0
0
0
0
0
0
0
0
0
0.105
0
0
0
0
0
0
0.004
0.418
0
0
0
0
0
0
0.02
0.117
0
0
0
0
0
0.199
0.004
0.012
0
0
0
0
0.07
0.008
0.176
0
0.031
0
0.004
0
0.02
0.008
0
0
0
0
0
0
0
0.004
0
0
0
0
0
0
0
0.016
0
0
0.004
0
0.082
0.004
0
0.008
0
0
0.031
0
0.066
0
0
0
0
0.02
0
0.008
0.016
0
0
0
0
0
0.383
0.004
0
0
0
0
0
0.059
0.059
0.254
0.02
0.008
0
0
0
0.008
0.016
0.074
0.008
0
0
0
0
0.031
0.004
0.004
0
0
0
0
0.008
0.02
0
0
0
0
0
0.07
0
0
0.004
0
0
0
0.004
0.34
0
0
0
0
0
0
0
0.027
0
0
0
0
0
0.047
0.004
0
0
0
0
0
0.004
0.047
0.219
0
0.012
0
0
0
0.004
0.008
0.082
0
0
0
0.004
0
0.055
0
0.004
0
0
0
0
0
0
0
0
0
0.004
0
0.074
0
0
0
0
0
0
0
0.07
0
0
0
0
0
0
0.008
0
0
0
0
0
0
0.395
0
0
0
0.004
0
0
0.051
0.008
0.133
0
0
0
0
0
0.004
0.008
0.016
0
0
0
0
0
0
0.004
0.004
0
0
0
0
0
0.008
0.004
0
0
0.004
0
0.188
0.012
0.004
0.062
0
0
0
0.012
0.344
0.004
0
0
0
0
0
0.004
0.043
0
0
0
0
0
0.133
0
0.004
0
0
0.004
0
0.004
0
0.062
0
0.074
0
0
0
0
0.004
0.004
0
0
0
0
0
0
0
0.02
0
0
0
0
0
0
0
0.023
0
0
0
0.086
0
0
0
0
0
0.047
0.012
0.082
0
0
0
0
0.016
0
0.016
0.062
0
0
0
0
0
0.355
0
0.008
0
0
0
0
0.098
0.031
0.137
0
0.008
0
0
0
0
0.004
0.023
0.004
0
0
0
0
0.039
0
0.004
0
0
0
0
0
0
0
0
0
0
0
0.109
0
0
0
0
0
0
0.016
0.426
0
0
0
0
0
0
0
0.062
0
0
0
0
0
0.078
0
0
0
0
0
0
0.004
0.086
0.133
0
0
0
0
0
0
0
0.059
0
0
0
0
0
0.059
0
0.004
0
0
0
0
0
0
0
0
0
0
0
0.066
0
0
0
0
0
0
0
0.113
0
0
0
0
0
0
0.004
0.004
0
0
0
0
0
0.516
0
0
0
0
0
0
0.012
0.031
0.027
0
0.016
0
0
0
0
0
0
0
0
0
0
0
0
0
0
0
0
0
0
0
0
0.043
0
0
0
0
0.238
0
0
0.012
0
0
0
0.016
0.445
0
0
0
0
0
0
0.004
0.023
0
0
0
0
0
0.105
0
0.012
0
0
0
0
0.004
0.055
0.051
0
0.016
0
0
0
0
0.008
0
0
0
0
0
0
0
0
0.035
0
0
0
0
0
0
0
0.012
0
0
0
0.086
0
0
0
0
0
0.055
0.02
0.172
0
0
0
0
0.008
0
0.004
0.012
0
0
0
0
0
0.332
0
0
0
0
0
0
0.18
0.012
0.07
0
0.035
0
0
0
0
0
0
0
0
0
0
0
0
0
0
0
0
0
0
0
0
0
0
0
0
0
0.129
0
0
0
0
0
0
0.012
0.332
0
0
0
0
0
0
0.004
0.293
0
0
0
0
0
0.055
0.004
0.02
0
0
0
0
0.027
0.02
0.164
0.008
0.027
0
0
0
0
0.004
0.043
0
0
0
0
0
0.051
0
0.008
0
0
0
0
0
0
0
0
0
0
0
0.066
0
0
0
0
0
0
0
0.086
0
0
0
0
0
0
0.008
0.023
0
0
0
0
0
0.391
0
0
0
0
0
0
0.102
0.02
0.133
0
0.059
0
0
0
0.012
0
0
0
0
0
0
0
0
0.004
0.004
0
0
0
0
0
0
0.004
0
0
0
0
0.18
0
0
0.008
0
0
0
0.02
0.328
0
0
0
0
0
0
0.023
0.07
0
0
0
0
0
0.051
0.004
0.012
0
0
0
0
0.043
0.047
0.059
0
0.02
0
0
0
0
0.008
0
0
0
0
0
0
0
0.004
0
0
0
0
0
0
0
0
0.016
0
0
0
0.117
0
0
0
0
0
0.047
0.008
0.105
0
0
0
0
0.016
0
0.004
0.016
0
0
0
0
0
0.473
0
0
0
0
0
0
0.051
0.059
0.043
0
0.039
0
0
0
0
0
0
0
0
0
0
0
0
0
0
0
0
0
0
0
0
0
0
0
0
0
0.121
0
0
0
0
0
0
0.016
0.414
0
0
0
0
0
0
0.027
0.156
0
0
0
0
0
0.121
0.008
0.008
0
0
0
0
0.02
0.027
0.137
0
0.035
0
0
0
0
0
0.012
0
0
0
0
0
0.02
0
0
0
0
0
0
0
0
0
0
0
0
0
0.09
0
0
0
0
0
0
0
0.086
0
0
0
0
0
0
0
0.059
0
0
0
0
0
0.422
0.004
0.012
0
0
0.004
0
0.102
0.02
0.184
0
0.113
0
0
0
0
0
0
0
0
0
0
0
0
0.008
0
0
0
0
0
0.008
0
0
0.004
0
0
0
0.109
0
0.004
0.008
0
0
0
0.02
0.125
0
0
0
0
0
0
0.016
0.156
0.004
0
0
0
0
0.078
0.02
0.035
0
0
0
0
0.043
0.066
0.035
0
0.008
0
0
0
0
0
0.027
0
0
0
0
0
0
0
0.004
0
0
0
0
0
0
0
0.008
0
0
0
0.105
0
0
0
0
0
0.059
0
0.105
0
0
0
0
0.004
0
0.004
0.027
0
0
0
0
0
0.488
0
0
0
0
0
0
0.062
0.062
0.039
0
0
0
0
0
0
0
0
0
0
0
0
0
0
0
0
0
0
0
0
0
0
0
0
0
0
0
0.164
0
0
0
0
0
0
0.023
0.582
0
0
0
0
0
0
0.004
0.09
0
0
0
0
0
0.082
0.004
0.004
0
0
0
0
0.004
0.004
0.098
0
0.074
0
0
0
0
0
0
0
0
0
0
0
0
0
0
0
0
0
0
0
0
0
0
0
0
0
0.102
0
0
0
0
0
0
0.035
0.062
0
0
0
0
0
0
0.008
0.055
0
0
0
0
0
0.277
0.004
0.031
0
0
0
0
0.219
0.035
0.125
0
0.113
0
0
0
0
0
0
0
0
0
0
0
0
0.012
0
0
0
0
0
0
0
0.016
0
0
0
0
0.164
0
0
0.004
0
0
0
0.031
0.117
0
0
0
0
0
0
0.027
0.16
0
0
0
0
0
0.098
0.02
0.004
0.004
0
0
0
0.023
0.082
0.07
0
0.02
0
0
0
0.004
0.004
0.004
0
0
0
0
0
0
0.012
0
0
0
0
0
0
0
0.004
0
0
0
0
0.074
0
0
0
0
0
0.02
0.016
0.117
0
0
0
0
0.016
0
0.004
0.039
0
0
0
0
0
0.395
0
0.004
0
0
0
0
0.164
0.035
0.039
0
0.035
0
0
0
0
0
0
0
0
0
0
0
0
0
0
0
0
0
0
0
0
0
0
0
0
0
0.125
0
0
0
0
0
0
0.008
0.48
0
0
0
0
0
0
0.008
0.133
0
0
0
0
0
0.074
0.004
0.008
0
0
0
0
0.07
0.016
0.145
0
0.141
0
0
0
0
0
0
0
0
0
0
0
0
0
0
0
0
0
0
0
0
0
0
0
0
0
0.133
0
0
0
0
0
0
0.016
0.062
0
0
0
0
0
0
0.016
0.094
0
0
0
0
0
0.18
0.016
0.02
0
0
0
0
0.109
0.07
0.137
0
0.09
0
0
0
0
0
0
0
0
0
0
0
0
0.008
0
0
0
0
0
0
0
0.012
0
0
0
0
0.25
0
0
0
0
0
0
0.008
0.16
0
0
0
0
0
0
0.004
0.09
0
0
0
0
0
0.094
0.02
0.012
0
0
0
0
0.02
0.098
0.066
0
0.031
0
0
0
0
0
0
0
0
0
0
0
0.012
0
0
0
0
0
0
0
0
0
0
0
0
0
0.062
0
0
0
0
0
0
0.012
0.203
0
0
0
0
0
0
0.008
0.047
0
0
0
0
0
0.375
0.004
0
0
0
0
0
0.145
0.035
0.113
0
0.07
0
0
0
0
0
0
0
0
0
0
0
0
0
0
0
0
0
0
0
0
0
0
0
0
0
0.133
0
0
0
0
0
0
0.02
0.305
0
0
0
0
0
0
0.012
0.203
0
0
0
0
0
0.031
0.012
0.047
0
0
0
0
0.031
0.023
0.082
0
0.09
0
0
0
0
0
0
0
0
0
0
0
0
0
0
0
0
0
0
0
0
0
0
0
0
0
0.125
0
0
0
0
0
0
0.012
0.148
0
0
0
0
0
0
0.012
0.082
0
0
0
0
0
0.238
0.004
0.02
0
0
0
0
0.148
0.039
0.074
0
0.047
0
0
0
0
0
0
0
0
0
0
0
0
0.02
0
0
0
0
0
0
0
0.004
0
0
0
0
0.156
0
0
0
0
0
0
0.023
0.289
0
0
0
0
0
0
0.035
0.148
0
0
0
0
0
0.125
0.008
0.027
0
0
0
0
0.008
0.035
0.145
0
0.039
0
0
0.004
0.008
0.004
0
0
0
0
0.008
0
0
0.004
0
0
0
0
0
0
0.008
0.004
0.008
0
0
0
0.086
0
0.004
0.004
0
0
0.02
0.055
0.098
0
0.004
0
0
0
0
0.004
0.059
0
0
0
0
0
0.23
0.004
0.004
0
0
0
0
0.141
0.059
0.129
0
0.113
0
0
0
0.004
0.004
0
0.004
0
0
0
0.004
0.004
0
0
0.004
0
0
0
0.004
0
0
0
0
0
0
0.234
0
0
0
0
0
0
0.027
0.156
0
0
0
0
0
0
0.02
0.102
0
0
0
0
0
0.055
0.012
0.016
0
0
0
0
0.066
0.043
0.098
0
0.047
0
0
0
0
0
0
0
0
0
0
0
0.004
0
0
0
0
0
0
0.004
0
0
0
0
0
0
0.094
0
0
0.004
0
0
0
0.004
0.172
0
0
0
0
0
0
0
0.031
0.004
0
0
0
0
0.242
0
0.008
0
0
0
0
0.246
0.043
0.141
0
0.059
0
0
0.004
0
0.008
0
0
0
0
0
0
0.004
0.027
0.012
0
0
0
0
0.004
0
0.008
0
0
0
0
0.105
0
0
0.008
0
0
0
0.016
0.367
0
0
0
0
0
0
0.023
0.047
0
0
0
0
0
0.078
0.008
0.02
0.004
0
0
0
0.031
0.027
